Where in the World is this IP Address? • carmen
…
crm_locate("130.191.166.222")
#> # A tibble: 1 x 2
#>   country_code country_name            
#>   <chr>        <chr>                   
#> 1 US           United States of America

carmen can be used within dplyr::mutate().

tibble(
  id   = seq_len(100),
  name = generator::r_full_names(100),
  ip   = generator::r_ipv4_addresses(100)
) %>%
  mutate(crm_locate(ip))
#> # A tibble: 100 x 5
#>       id name           ip              country_code country_name              
#>    <int> <chr>          <chr>           <chr>        <chr>                     
#>  1     1 Venus Anderson 200.229.30.56   BR           Brazil                    
#>  2     2 Maryanne Kub   238.79.29.122   -            -                         
#>  3     3 Eliana Kunde   134.42.104.111  US           United States of America  
#>  4     4 Yuki Buckridge 29.206.69.8     US           United States of America  
#>  5     5 Willy Hilpert  15.238.80.103   US           United States of America  
#>  6     6 Ted Corkery    239.175.232.174 -            -                         
#>  7     7 Almeta Koepp   33.117.92.22    US           United States of America  
#>  8     8 Allyson Pouros 50.220.84.254   US           United States of America  
#>  9     9 Jeri Gulgowski 219.91.83.200   TW           Taiwan (Province of China)
#> 10    10 Leonard Willms 236.35.162.189  -            -                         
#> # ... with 90 more rows
…
