…
**carmen** can be used within `dplyr::mutate()`.

``` r
tibble(
  id   = seq_len(100),
  name = generator::r_full_names(100),
  ip   = generator::r_ipv4_addresses(100)
) %>%
  mutate(crm_locate(ip))
#> # A tibble: 100 x 5
#>       id name               ip             country_code country_name            
#>    <int> <chr>              <chr>          <chr>        <chr>                   
#>  1     1 Gabriel Breitenbe~ 213.176.122.1~ IR           Iran (Islamic Republic ~
#>  2     2 Elvia Sipes        101.34.181.209 CN           China                   
#>  3     3 Lacy Strosin       147.244.46.196 US           United States of America
#>  4     4 Chae Heathcote     108.213.131.24 US           United States of America
#>  5     5 Arla Luettgen      115.246.7.197  IN           India                   
#>  6     6 Frankie Witting    121.233.83.107 CN           China                   
#>  7     7 Broderick Ward     168.109.36.39  US           United States of America
#>  8     8 Clemente Hyatt     239.194.73.65  -            -                       
#>  9     9 Maegan Hilpert     81.74.212.67   IT           Italy                   
#> 10    10 Un Champlin        141.242.174.2~ US           United States of America
#> # ... with 90 more rows
```
…
