Where in the world is this IP address? — crm_locate • carmen
…
tibble(
  id   = seq_len(100),
  name = generator::r_full_names(100),
  ip   = generator::r_ipv4_addresses(100)
) %>%
  mutate(crm_locate(ip))

#> # A tibble: 100 x 5
#>       id name             ip              country_code country_name            
#>    <int> <chr>            <chr>           <chr>        <chr>                   
#>  1     1 Toby Lubowitz    46.52.197.150   RU           Russian Federation      
#>  2     2 Damian Keeling   39.123.203.16   KR           Korea (Republic of)     
#>  3     3 Paris O'Conner   151.176.97.209  DE           Germany                 
#>  4     4 Jenifer Stracke  7.56.69.228     US           United States of America
#>  5     5 Belkis Hermiston 143.82.226.2    US           United States of America
#>  6     6 Sachiko Corwin   142.145.105.13  CA           Canada                  
#>  7     7 Noah Will        223.211.225.229 CN           China                   
#>  8     8 Ian Pfannerstill 35.152.200.65   ES           Spain                   
#>  9     9 Ruben Herzog     162.22.115.53   US           United States of America
#> 10    10 Clora Hilpert    22.89.145.10    US           United States of America
#> # … with 90 more rows
…
